[api-updater (non-obsolete-error-filter)] 12/14/2022 1:48:17 PM : Starting C:/Program Files/Unity/Hub/Editor/2020.3.33f1/Editor/Data/Tools/ScriptUpdater/APIUpdater.NonObsoleteApiUpdaterDetector.exe
[api-updater (non-obsolete-error-filter)] 
----------------------------------
jit/startup time      : 335.9157ms
moved types parse time: 73ms
candidates parse time : 2ms
C# parse time         : 259ms
candidates check time : 32ms
console write time    : 0ms

[api-updater (non-obsolete-error-filter)] 12/14/2022 1:49:30 PM : Starting C:/Program Files/Unity/Hub/Editor/2020.3.33f1/Editor/Data/Tools/ScriptUpdater/APIUpdater.NonObsoleteApiUpdaterDetector.exe
[api-updater (non-obsolete-error-filter)] 
----------------------------------
jit/startup time      : 80.7942ms
moved types parse time: 68ms
candidates parse time : 2ms
C# parse time         : 225ms
candidates check time : 31ms
console write time    : 0ms

[api-updater (non-obsolete-error-filter)] 12/14/2022 2:05:37 PM : Starting C:/Program Files/Unity/Hub/Editor/2020.3.33f1/Editor/Data/Tools/ScriptUpdater/APIUpdater.NonObsoleteApiUpdaterDetector.exe
[api-updater (non-obsolete-error-filter)] 
----------------------------------
jit/startup time      : 70.9889ms
moved types parse time: 58ms
candidates parse time : 1ms
C# parse time         : 165ms
candidates check time : 29ms
console write time    : 0ms

[api-updater (non-obsolete-error-filter)] 12/14/2022 3:51:25 PM : Starting C:/Program Files/Unity/Hub/Editor/2020.3.33f1/Editor/Data/Tools/ScriptUpdater/APIUpdater.NonObsoleteApiUpdaterDetector.exe
[api-updater (non-obsolete-error-filter)] 
----------------------------------
jit/startup time      : 100.5502ms
moved types parse time: 77ms
candidates parse time : 2ms
C# parse time         : 290ms
candidates check time : 61ms
console write time    : 0ms

[api-updater (non-obsolete-error-filter)] 12/14/2022 4:13:56 PM : Starting C:/Program Files/Unity/Hub/Editor/2020.3.33f1/Editor/Data/Tools/ScriptUpdater/APIUpdater.NonObsoleteApiUpdaterDetector.exe
[api-updater (non-obsolete-error-filter)] 
----------------------------------
jit/startup time      : 91.3757ms
moved types parse time: 54ms
candidates parse time : 1ms
C# parse time         : 184ms
candidates check time : 39ms
console write time    : 0ms

