%YAML 1.1
%TAG !u! tag:unity3d.com,2011:
--- !u!162 &1
EditorUserSettings:
  m_ObjectHideFlags: 0
  serializedVersion: 4
  m_ConfigSettings:
    RecentlyUsedScenePath-0:
      value: 22424703114646680e0b0227036c6c111b07142f1f2b233e2867083debf42d
      flags: 0
    RecentlyUsedScenePath-1:
      value: 2242470311464668081c05231c2a4515123311293821293e2c3b047cd1e52631e3eb3ff3e23e1b353a16e6330a3f1326bc1f0702e212
      flags: 0
    RecentlyUsedScenePath-2:
      value: 224247031146467a0f1d183011204b331a160b39082d2b3f62081f20f6f2353bf6c43ae8f4291b39340da1290a371526
      flags: 0
    RecentlyUsedScenePath-3:
      value: 224247031146467a09180d2c13265b335558392e3a292833282d3e70acf53a31f6fe
      flags: 0
    RecentlyUsedScenePath-4:
      value: 2242470311464672031a093016225c153212152563012824283b1b32e1e5103defe878fce9332b25
      flags: 0
    vcSharedLogLevel:
      value: 0d5e400f0650
      flags: 0
  m_VCAutomaticAdd: 1
  m_VCDebugCom: 0
  m_VCDebugCmd: 0
  m_VCDebugOut: 0
  m_SemanticMergeMode: 2
  m_VCShowFailedCheckout: 1
  m_VCOverwriteFailedCheckoutAssets: 1
  m_VCProjectOverlayIcons: 1
  m_VCHierarchyOverlayIcons: 1
  m_VCOtherOverlayIcons: 1
  m_VCAllowAsyncUpdate: 1
